0.150000 0.030037 -0.033157
0.150000 0.073980 -0.079244
0.150000 0.083727 -0.000754
232 233 234 235 236 237 230 231 
2 3 4 5 6 7 0 1 
0.150000 0.030037 -0.033157
0.150000 0.073980 -0.079244
0.150000 -0.002082 -0.086216
240 241 242 243 236 237 238 239 
10 11 12 13 6 7 8 9 
0.150000 0.030037 -0.033157
0.150000 0.021973 0.025600
0.150000 -0.026124 -0.022336
246 247 248 249 250 251 244 245 
16 17 18 19 20 21 14 15 
0.150000 0.030037 -0.033157
0.150000 0.083727 -0.000754
0.150000 0.021973 0.025600
254 255 250 251 234 235 252 253 
24 25 20 21 4 5 22 23 
0.150000 0.030037 -0.033157
0.150000 -0.002082 -0.086216
0.150000 -0.026124 -0.022336
258 259 248 249 242 243 256 257 
28 29 18 19 12 13 26 27 
0.150000 0.090000 -0.150000
0.150000 0.073980 -0.079244
0.150000 0.150000 -0.090000
262 263 264 265 266 267 260 261 
32 33 34 35 36 37 30 31 
0.150000 0.090000 -0.150000
0.150000 0.150000 -0.090000
0.150000 0.150000 -0.150000
270 271 272 273 264 265 268 269 
40 41 42 43 34 35 38 39 
0.150000 0.090000 -0.150000
0.150000 0.073980 -0.079244
0.150000 0.030000 -0.150000
276 277 278 279 266 267 274 275 
46 47 48 49 36 37 44 45 
0.150000 0.073980 -0.079244
0.150000 0.150000 -0.090000
0.150000 0.150000 -0.030000
282 283 284 285 262 263 280 281 
52 53 54 55 32 33 50 51 
0.150000 0.073980 -0.079244
0.150000 0.030000 -0.150000
0.150000 -0.002082 -0.086216
288 289 240 241 276 277 286 287 
58 59 10 11 46 47 56 57 
0.150000 0.073980 -0.079244
0.150000 0.083727 -0.000754
0.150000 0.150000 -0.030000
292 293 284 285 232 233 290 291 
62 63 54 55 2 3 60 61 
0.150000 0.090000 0.150000
0.150000 0.150000 0.150000
0.150000 0.150000 0.090000
296 297 298 299 300 301 294 295 
66 67 68 69 70 71 64 65 
0.150000 0.090000 0.150000
0.150000 0.150000 0.090000
0.150000 0.073592 0.078893
304 305 306 307 298 299 302 303 
74 75 76 77 68 69 72 73 
0.150000 0.090000 0.150000
0.150000 0.073592 0.078893
0.150000 0.030000 0.150000
310 311 312 313 306 307 308 309 
80 81 82 83 76 77 78 79 
0.150000 0.150000 0.090000
0.150000 0.073592 0.078893
0.150000 0.150000 0.030000
316 317 318 319 304 305 314 315 
86 87 88 89 74 75 84 85 
0.150000 0.073592 0.078893
0.150000 0.150000 0.030000
0.150000 0.083727 -0.000754
322 323 324 325 316 317 320 321 
92 93 94 95 86 87 90 91 
0.150000 0.073592 0.078893
0.150000 0.083727 -0.000754
0.150000 0.021973 0.025600
254 255 328 329 324 325 326 327 
24 25 98 99 94 95 96 97 
0.150000 0.073592 0.078893
0.150000 -0.001173 0.088324
0.150000 0.030000 0.150000
332 333 310 311 334 335 330 331 
102 103 80 81 104 105 100 101 
0.150000 0.073592 0.078893
0.150000 -0.001173 0.088324
0.150000 0.021973 0.025600
338 339 328 329 334 335 336 337 
108 109 98 99 104 105 106 107 
0.150000 0.150000 0.030000
0.150000 0.083727 -0.000754
0.150000 0.150000 -0.030000
292 293 342 343 322 323 340 341 
62 63 112 113 92 93 110 111 
0.150000 -0.090000 -0.150000
0.150000 -0.030000 -0.150000
0.150000 -0.078928 -0.073517
346 347 348 349 350 351 344 345 
116 117 118 119 120 121 114 115 
0.150000 -0.090000 -0.150000
0.150000 -0.150000 -0.150000
0.150000 -0.150000 -0.090000
354 355 356 357 358 359 352 353 
124 125 126 127 128 129 122 123 
0.150000 -0.090000 -0.150000
0.150000 -0.150000 -0.090000
0.150000 -0.078928 -0.073517
362 363 348 349 356 357 360 361 
132 133 118 119 126 127 130 131 
0.150000 -0.150000 -0.090000
0.150000 -0.078928 -0.073517
0.150000 -0.150000 -0.030000
366 367 368 369 362 363 364 365 
136 137 138 139 132 133 134 135 
0.150000 -0.074901 0.080276
0.150000 -0.032780 0.035471
0.150000 -0.001173 0.088324
372 373 374 375 376 377 370 371 
142 143 144 145 146 147 140 141 
0.150000 -0.078928 -0.073517
0.150000 -0.150000 -0.030000
0.150000 -0.086597 0.003809
380 381 382 383 366 367 378 379 
150 151 152 153 136 137 148 149 
0.150000 -0.030000 -0.150000
0.150000 -0.078928 -0.073517
0.150000 -0.002082 -0.086216
386 387 388 389 346 347 384 385 
156 157 158 159 116 117 154 155 
0.150000 -0.030000 -0.150000
0.150000 0.030000 -0.150000
0.150000 -0.002082 -0.086216
288 289 388 389 392 393 390 391 
58 59 158 159 162 163 160 161 
0.150000 -0.078928 -0.073517
0.150000 -0.002082 -0.086216
0.150000 -0.026124 -0.022336
258 259 396 397 386 387 394 395 
28 29 166 167 156 157 164 165 
0.150000 -0.078928 -0.073517
0.150000 -0.086597 0.003809
0.150000 -0.026124 -0.022336
400 401 396 397 382 383 398 399 
170 171 166 167 152 153 168 169 
0.150000 -0.074901 0.080276
0.150000 -0.030000 0.150000
0.150000 -0.001173 0.088324
404 405 374 375 406 407 402 403 
174 175 144 145 176 177 172 173 
0.150000 -0.150000 -0.030000
0.150000 -0.150000 0.030000
0.150000 -0.086597 0.003809
410 411 380 381 412 413 408 409 
180 181 150 151 182 183 178 179 
0.150000 -0.074901 0.080276
0.150000 -0.030000 0.150000
0.150000 -0.090000 0.150000
416 417 418 419 406 407 414 415 
186 187 188 189 176 177 184 185 
0.150000 -0.074901 0.080276
0.150000 -0.150000 0.030000
0.150000 -0.086597 0.003809
410 411 422 423 424 425 420 421 
180 181 192 193 194 195 190 191 
0.150000 -0.074901 0.080276
0.150000 -0.150000 0.090000
0.150000 -0.150000 0.030000
428 429 424 425 430 431 426 427 
198 199 194 195 200 201 196 197 
0.150000 -0.074901 0.080276
0.150000 -0.032780 0.035471
0.150000 -0.086597 0.003809
434 435 422 423 376 377 432 433 
204 205 192 193 146 147 202 203 
0.150000 -0.074901 0.080276
0.150000 -0.150000 0.090000
0.150000 -0.090000 0.150000
438 439 418 419 430 431 436 437 
208 209 188 189 200 201 206 207 
0.150000 -0.032780 0.035471
0.150000 0.021973 0.025600
0.150000 -0.026124 -0.022336
246 247 442 443 444 445 440 441 
16 17 212 213 214 215 210 211 
0.150000 -0.030000 0.150000
0.150000 -0.001173 0.088324
0.150000 0.030000 0.150000
332 333 448 449 404 405 446 447 
102 103 218 219 174 175 216 217 
0.150000 -0.032780 0.035471
0.150000 -0.001173 0.088324
0.150000 0.021973 0.025600
338 339 444 445 372 373 450 451 
108 109 214 215 142 143 220 221 
0.150000 -0.032780 0.035471
0.150000 -0.086597 0.003809
0.150000 -0.026124 -0.022336
400 401 442 443 434 435 452 453 
170 171 212 213 204 205 222 223 
0.150000 -0.150000 0.090000
0.150000 -0.090000 0.150000
0.150000 -0.150000 0.150000
456 457 458 459 438 439 454 455 
226 227 228 229 208 209 224 225 
