0.150000 0.150000 -0.000000
0.150000 -0.000000 -0.150000
0.150000 0.150000 -0.150000
40 41 42 43 44 45 38 39 
2 3 4 5 6 7 0 1 
0.150000 0.150000 -0.000000
0.150000 -0.000000 -0.150000
0.150000 0.000000 0.150000
48 49 50 51 44 45 46 47 
10 11 12 13 6 7 8 9 
0.150000 0.150000 -0.000000
0.150000 0.000000 0.150000
0.150000 0.150000 0.150000
54 55 56 57 50 51 52 53 
16 17 18 19 12 13 14 15 
0.150000 -0.150000 -0.000000
0.150000 0.000000 0.150000
0.150000 -0.150000 0.150000
60 61 62 63 64 65 58 59 
22 23 24 25 26 27 20 21 
0.150000 -0.000000 -0.150000
0.150000 -0.150000 -0.150000
0.150000 -0.150000 -0.000000
68 69 70 71 72 73 66 67 
30 31 32 33 34 35 28 29 
0.150000 -0.000000 -0.150000
0.150000 -0.150000 -0.000000
0.150000 0.000000 0.150000
64 65 48 49 70 71 74 75 
26 27 10 11 32 33 36 37 
